1.2/LSD/trabPrat04/part2/simulation/qsim/Register_Demo.msim.vcd
$comment
	File created using the following command:
		vcd file Register_Demo.msim.vcd -direction
$end
$date
	Mon Mar 18 21:03:52 2024
$end
$version
	Questa Intel Starter FPGA Edition Version 2021.2
$end
$timescale
	1ps
$end

$scope module register8_vhd_vec_tst $end
$var wire 1 ! clk $end
$var wire 1 " d [7] $end
$var wire 1 # d [6] $end
$var wire 1 $ d [5] $end
$var wire 1 % d [4] $end
$var wire 1 & d [3] $end
$var wire 1 ' d [2] $end
$var wire 1 ( d [1] $end
$var wire 1 ) d [0] $end
$var wire 1 * q [7] $end
$var wire 1 + q [6] $end
$var wire 1 , q [5] $end
$var wire 1 - q [4] $end
$var wire 1 . q [3] $end
$var wire 1 / q [2] $end
$var wire 1 0 q [1] $end
$var wire 1 1 q [0] $end
$var wire 1 2 reset $end
$var wire 1 3 set $end

$scope module i1 $end
$var wire 1 4 gnd $end
$var wire 1 5 vcc $end
$var wire 1 6 unknown $end
$var wire 1 7 devoe $end
$var wire 1 8 devclrn $end
$var wire 1 9 devpor $end
$var wire 1 : ww_devoe $end
$var wire 1 ; ww_devclrn $end
$var wire 1 < ww_devpor $end
$var wire 1 = ww_clk $end
$var wire 1 > ww_set $end
$var wire 1 ? ww_reset $end
$var wire 1 @ ww_d [7] $end
$var wire 1 A ww_d [6] $end
$var wire 1 B ww_d [5] $end
$var wire 1 C ww_d [4] $end
$var wire 1 D ww_d [3] $end
$var wire 1 E ww_d [2] $end
$var wire 1 F ww_d [1] $end
$var wire 1 G ww_d [0] $end
$var wire 1 H ww_q [7] $end
$var wire 1 I ww_q [6] $end
$var wire 1 J ww_q [5] $end
$var wire 1 K ww_q [4] $end
$var wire 1 L ww_q [3] $end
$var wire 1 M ww_q [2] $end
$var wire 1 N ww_q [1] $end
$var wire 1 O ww_q [0] $end
$var wire 1 P \q[0]~output_o\ $end
$var wire 1 Q \q[1]~output_o\ $end
$var wire 1 R \q[2]~output_o\ $end
$var wire 1 S \q[3]~output_o\ $end
$var wire 1 T \q[4]~output_o\ $end
$var wire 1 U \q[5]~output_o\ $end
$var wire 1 V \q[6]~output_o\ $end
$var wire 1 W \q[7]~output_o\ $end
$var wire 1 X \clk~input_o\ $end
$var wire 1 Y \set~input_o\ $end
$var wire 1 Z \d[0]~input_o\ $end
$var wire 1 [ \reset~input_o\ $end
$var wire 1 \ \ff_0|q~0_combout\ $end
$var wire 1 ] \ff_0|q~q\ $end
$var wire 1 ^ \d[1]~input_o\ $end
$var wire 1 _ \ff_1|q~0_combout\ $end
$var wire 1 ` \ff_1|q~q\ $end
$var wire 1 a \d[2]~input_o\ $end
$var wire 1 b \ff_2|q~0_combout\ $end
$var wire 1 c \ff_2|q~q\ $end
$var wire 1 d \d[3]~input_o\ $end
$var wire 1 e \ff_3|q~0_combout\ $end
$var wire 1 f \ff_3|q~q\ $end
$var wire 1 g \d[4]~input_o\ $end
$var wire 1 h \ff_4|q~0_combout\ $end
$var wire 1 i \ff_4|q~q\ $end
$var wire 1 j \d[5]~input_o\ $end
$var wire 1 k \ff_5|q~0_combout\ $end
$var wire 1 l \ff_5|q~q\ $end
$var wire 1 m \d[6]~input_o\ $end
$var wire 1 n \ff_6|q~0_combout\ $end
$var wire 1 o \ff_6|q~q\ $end
$var wire 1 p \d[7]~input_o\ $end
$var wire 1 q \ff_7|q~0_combout\ $end
$var wire 1 r \ff_7|q~q\ $end
$upscope $end
$upscope $end
$enddefinitions $end
#0
$dumpvars
0!
02
03
04
15
x6
17
18
19
1:
1;
1<
0=
0>
0?
0P
0Q
0R
0S
0T
0U
0V
0W
0X
0Y
1Z
0[
1\
0]
0^
0_
0`
1a
1b
0c
1d
1e
0f
0g
0h
0i
0j
0k
0l
0m
0n
0o
0p
0q
0r
0"
0#
0$
0%
1&
1'
0(
1)
0*
0+
0,
0-
0.
0/
00
01
0@
0A
0B
0C
1D
1E
0F
1G
0H
0I
0J
0K
0L
0M
0N
0O
$end
#20000
1!
1=
1X
1]
1c
1f
1S
1R
1P
1L
1M
1O
11
1/
1.
#40000
0!
1#
1%
0&
0'
1(
0)
0=
0G
1F
0E
0D
1C
1A
1m
1g
0d
0a
1^
0Z
0X
0\
1_
0b
0e
1h
1n
#60000
1!
1=
1X
0]
1`
0c
0f
1i
1o
1V
1T
0S
0R
1Q
0P
1I
1K
0L
0M
1N
0O
01
10
0/
0.
1-
1+
#80000
0!
0#
0%
1"
0=
0C
0A
1@
1p
0m
0g
0X
0h
0n
1q
#100000
1!
1=
1X
0i
0o
1r
1W
0V
0T
1H
0I
0K
0-
0+
1*
#120000
0!
1#
1%
0"
1&
0(
1)
0=
1G
0F
1D
1C
1A
0@
0p
1m
1g
1d
0^
1Z
0X
1\
0_
1e
1h
1n
0q
#140000
1!
1=
1X
1]
0`
1f
1i
1o
0r
0W
1V
1T
1S
0Q
1P
0H
1I
1K
1L
0N
1O
11
00
1.
1-
1+
0*
#160000
0!
0%
1"
0&
1(
1'
1$
0=
1F
1E
0D
0C
1B
1@
1p
1j
0g
0d
1a
1^
0X
1_
1b
0e
0h
1k
1q
#180000
1!
1=
1X
1`
1c
0f
0i
1l
1r
1W
1U
0T
0S
1R
1Q
1H
1J
0K
0L
1M
1N
10
1/
0.
0-
1,
1*
#190000
12
1?
1[
0\
0_
0b
0k
0n
0q
#200000
0!
0(
0'
0$
0#
0=
0F
0E
0B
0A
0m
0j
0a
0^
0X
#220000
1!
1=
1X
0]
0`
0c
0l
0o
0r
0W
0V
0U
0R
0Q
0P
0H
0I
0J
0M
0N
0O
01
00
0/
0,
0+
0*
#240000
0!
1(
1$
1#
0)
0=
0G
1F
1B
1A
1m
1j
1^
0Z
0X
#250000
13
1>
1Y
#260000
1!
1=
1X
#270000
02
0?
0[
1\
1_
1b
1e
1h
1k
1n
1q
#280000
0!
0#
1)
1%
0"
1&
0=
1G
1D
1C
0A
0@
0p
0m
1g
1d
1Z
0X
#300000
1!
1=
1X
1]
1`
1c
1f
1i
1l
1o
1r
1W
1V
1U
1T
1S
1R
1Q
1P
1H
1I
1J
1K
1L
1M
1N
1O
11
10
1/
1.
1-
1,
1+
1*
#320000
0!
0%
1"
0$
1'
0=
1E
0C
0B
1@
1p
0j
0g
1a
0X
#340000
1!
1=
1X
#360000
0!
1%
0"
1$
1#
0(
0=
0F
1C
1B
1A
0@
0p
1m
1j
1g
0^
0X
#380000
1!
03
1=
0>
0Y
1X
0_
0q
#400000
0!
0$
0#
0'
0)
0=
0G
0E
0B
0A
0m
0j
0a
0Z
0X
0\
0b
0k
0n
#420000
1!
1=
1X
0]
0`
0c
0l
0o
0r
0W
0V
0U
0R
0Q
0P
0H
0I
0J
0M
0N
0O
01
00
0/
0,
0+
0*
#440000
0!
1'
1"
0=
1E
1@
1p
1a
0X
1b
1q
#460000
1!
1=
1X
1c
1r
1W
1R
1H
1M
1/
1*
#480000
0!
0'
0"
1$
1#
1)
0&
0=
1G
0E
0D
1B
1A
0@
0p
1m
1j
0d
0a
1Z
0X
1\
0b
0e
1k
1n
0q
#500000
1!
1=
1X
1]
0c
0f
1l
1o
0r
0W
1V
1U
0S
0R
1P
0H
1I
1J
0L
0M
1O
11
0/
0.
1,
1+
0*
#520000
0!
1'
0$
1&
1(
0=
1F
1E
1D
0B
0j
1d
1a
1^
0X
1_
1b
1e
0k
#540000
1!
1=
1X
1`
1c
1f
0l
0U
1S
1R
1Q
0J
1L
1M
1N
10
1/
1.
0,
#560000
0!
0'
0=
0E
0a
0X
0b
#580000
1!
1=
1X
0c
0R
0M
0/
#600000
0!
1'
0&
0(
1"
0=
0F
1E
0D
1@
1p
0d
1a
0^
0X
0_
1b
0e
1q
#620000
1!
1=
1X
0`
1c
0f
1r
1W
0S
1R
0Q
1H
0L
1M
0N
00
1/
0.
1*
#640000
0!
1$
0#
0%
0=
0C
1B
0A
0m
1j
0g
0X
0h
1k
0n
#660000
1!
1=
1X
0i
1l
0o
0V
1U
0T
0I
1J
0K
0-
1,
0+
#680000
0!
1#
1%
0)
0=
0G
1C
1A
1m
1g
0Z
0X
0\
1h
1n
#700000
1!
1=
1X
0]
1i
1o
1V
1T
0P
1I
1K
0O
01
1-
1+
#720000
0!
1)
0'
1&
0=
1G
0E
1D
1d
0a
1Z
0X
1\
0b
1e
#740000
1!
1=
1X
1]
0c
1f
1S
0R
1P
1L
0M
1O
11
0/
1.
#760000
0!
1'
0%
1(
0"
0=
1F
1E
0C
0@
0p
0g
1a
1^
0X
1_
1b
0h
0q
#780000
1!
1=
1X
1`
1c
0i
0r
0W
0T
1R
1Q
0H
0K
1M
1N
10
1/
0-
0*
#800000
0!
1%
0(
0&
0#
0=
0F
0D
1C
0A
0m
1g
0d
0^
0X
0_
0e
1h
0n
#820000
1!
1=
1X
0`
0f
1i
0o
0V
1T
0S
0Q
0I
1K
0L
0N
00
0.
1-
0+
#840000
0!
1(
1#
0'
0)
0=
0G
1F
0E
1A
1m
0a
1^
0Z
0X
0\
1_
0b
1n
#860000
1!
1=
1X
0]
1`
0c
1o
1V
0R
1Q
0P
1I
0M
1N
0O
01
10
0/
1+
#880000
0!
0#
1"
0=
0A
1@
1p
0m
0X
0n
1q
#900000
1!
1=
1X
0o
1r
1W
0V
1H
0I
0+
1*
#920000
0!
1#
0"
0(
1&
0=
0F
1D
1A
0@
0p
1m
1d
0^
0X
0_
1e
1n
0q
#940000
1!
1=
1X
0`
1f
1o
0r
0W
1V
1S
0Q
0H
1I
1L
0N
00
1.
1+
0*
#960000
0!
1"
0&
1'
1)
0%
0$
0=
1G
1E
0D
0C
0B
1@
1p
0j
0g
0d
1a
1Z
0X
1\
1b
0e
0h
0k
1q
#980000
1!
1=
1X
1]
1c
0f
0i
0l
1r
1W
0U
0T
0S
1R
1P
1H
0J
0K
0L
1M
1O
11
1/
0.
0-
0,
1*
