1.2/LSD/trabPrat03/part1/simulation/qsim/AdderDemo.msim.vcd
$comment
	File created using the following command:
		vcd file AdderDemo.msim.vcd -direction
$end
$date
	Mon Apr 22 17:37:46 2024
$end
$version
	Questa Intel Starter FPGA Edition Version 2021.2
$end
$timescale
	1ps
$end

$scope module adder4_vhd_vec_tst $end
$var wire 1 ! a [3] $end
$var wire 1 " a [2] $end
$var wire 1 # a [1] $end
$var wire 1 $ a [0] $end
$var wire 1 % b [3] $end
$var wire 1 & b [2] $end
$var wire 1 ' b [1] $end
$var wire 1 ( b [0] $end
$var wire 1 ) cin $end
$var wire 1 * cout $end
$var wire 1 + s [3] $end
$var wire 1 , s [2] $end
$var wire 1 - s [1] $end
$var wire 1 . s [0] $end

$scope module i1 $end
$var wire 1 / gnd $end
$var wire 1 0 vcc $end
$var wire 1 1 unknown $end
$var wire 1 2 devoe $end
$var wire 1 3 devclrn $end
$var wire 1 4 devpor $end
$var wire 1 5 ww_devoe $end
$var wire 1 6 ww_devclrn $end
$var wire 1 7 ww_devpor $end
$var wire 1 8 ww_a [3] $end
$var wire 1 9 ww_a [2] $end
$var wire 1 : ww_a [1] $end
$var wire 1 ; ww_a [0] $end
$var wire 1 < ww_b [3] $end
$var wire 1 = ww_b [2] $end
$var wire 1 > ww_b [1] $end
$var wire 1 ? ww_b [0] $end
$var wire 1 @ ww_cin $end
$var wire 1 A ww_s [3] $end
$var wire 1 B ww_s [2] $end
$var wire 1 C ww_s [1] $end
$var wire 1 D ww_s [0] $end
$var wire 1 E ww_cout $end
$var wire 1 F \s[0]~output_o\ $end
$var wire 1 G \s[1]~output_o\ $end
$var wire 1 H \s[2]~output_o\ $end
$var wire 1 I \s[3]~output_o\ $end
$var wire 1 J \cout~output_o\ $end
$var wire 1 K \b[0]~input_o\ $end
$var wire 1 L \a[0]~input_o\ $end
$var wire 1 M \cin~input_o\ $end
$var wire 1 N \bit0|s~0_combout\ $end
$var wire 1 O \b[1]~input_o\ $end
$var wire 1 P \a[1]~input_o\ $end
$var wire 1 Q \bit0|cout~0_combout\ $end
$var wire 1 R \bit1|s~combout\ $end
$var wire 1 S \b[2]~input_o\ $end
$var wire 1 T \bit1|cout~0_combout\ $end
$var wire 1 U \a[2]~input_o\ $end
$var wire 1 V \bit2|s~combout\ $end
$var wire 1 W \a[3]~input_o\ $end
$var wire 1 X \b[3]~input_o\ $end
$var wire 1 Y \bit2|cout~0_combout\ $end
$var wire 1 Z \bit3|s~combout\ $end
$var wire 1 [ \bit3|cout~0_combout\ $end
$upscope $end
$upscope $end
$enddefinitions $end
#0
$dumpvars
0)
1*
0/
10
x1
12
13
14
15
16
17
0@
1E
0F
1G
1H
1I
1J
1K
1L
0M
0N
1O
1P
1Q
1R
1S
1T
1U
1V
1W
1X
1Y
1Z
1[
1!
1"
1#
1$
1%
1&
1'
1(
1+
1,
1-
0.
18
19
1:
1;
1<
1=
1>
1?
1A
1B
1C
0D
$end
#50000
0%
0&
0'
0(
1)
0?
0>
0=
0<
1@
1M
0X
0S
0O
0K
0R
0V
0Z
0I
0H
0G
0A
0B
0C
0-
0,
0+
#80000
1%
1&
0)
0"
0$
1=
1<
0@
0;
09
0U
0L
0M
1X
1S
1Z
0Q
1R
0T
1V
0Y
1I
0Z
1A
1G
1+
1C
1H
1-
1B
0I
1,
0A
0+
#110000
1)
1(
1@
1?
1K
1M
1Q
0R
1T
0V
1Y
1Z
0G
0C
0H
0-
0B
1I
0,
1A
1+
#120000
0)
0@
0M
1N
0Q
1R
0T
1V
0Y
1F
0Z
1D
1G
1.
1C
1H
1-
1B
0I
1,
0A
0+
#140000
0%
0&
1"
1$
0#
0=
0<
1;
0:
19
1U
0P
1L
0X
0S
1Z
0[
0N
1Q
0R
1R
0G
0F
0J
1I
0C
0D
0E
1A
1G
0.
0-
1+
0*
1C
1-
#150000
1)
1@
1M
1N
1F
1D
1.
#170000
1%
0"
0$
0(
1'
0!
0?
1>
1<
0;
09
08
0W
0U
0L
1X
1O
0K
0R
1T
0Q
0V
1R
0T
1V
0V
0H
0G
0B
0C
1H
1G
0-
0,
1B
1C
0H
1-
1,
0B
0,
#180000
0)
0@
0M
0N
0F
0D
0.
#200000
1"
1!
1#
1:
19
18
1W
1U
1P
0R
1T
1V
0Z
1[
0V
1Y
1Z
1J
0I
1H
0G
1E
0A
1B
0C
0H
1*
0-
1,
0+
0B
1I
0,
1A
1+
#210000
1)
1@
1M
1N
1F
1D
1.
#230000
0!
0#
1&
0:
08
1=
1S
0W
0P
1R
0T
0Z
1V
0V
1H
0I
1G
1B
0A
1C
0H
1-
1,
0+
0B
0,
#240000
0)
0@
0M
0N
0F
0D
0.
#260000
1!
1#
0%
1(
1:
18
1?
0<
0X
1K
1W
1P
0R
1T
1N
1V
1F
0G
1D
0C
1H
1.
0-
1B
1,
#290000
0!
0#
1%
0&
0'
0:
08
0>
0=
1<
1X
0S
0O
0W
0P
0T
0V
1V
0Y
1Z
0[
0H
0B
1H
0,
1B
0J
1I
1,
0E
1A
0*
1+
#300000
1)
1@
1M
0N
1Q
1R
0F
0D
1G
0.
1C
1-
#320000
0(
0"
0?
09
0U
0K
1N
0Q
0V
0R
0H
1F
0B
1D
0G
1.
0,
0C
0-
#330000
0)
0@
0M
0N
0F
0D
0.
#350000
1(
1"
1!
1#
0%
1'
1?
1>
0<
1:
19
18
1W
1U
1P
0X
1O
1K
1N
1T
1V
0V
1Y
0Z
1[
1H
1F
1B
1D
0H
1.
1,
0B
1J
0I
0,
1E
0A
1*
0+
#380000
0(
1%
1&
0?
1=
1<
1X
1S
0K
0N
1V
1Z
1I
1H
0F
1A
1B
0D
0.
1,
1+
#410000
0&
0"
0#
0'
0>
0=
0:
09
0U
0P
0S
0O
0T
0Y
0Z
0V
0H
0I
0B
0A
0,
0+
#440000
1&
1"
1'
1(
0%
0!
1$
1?
1>
1=
0<
1;
19
08
0W
1U
1L
0X
1S
1O
1K
1R
1Q
1Y
0[
1Z
0R
1T
1V
0J
1G
0E
1C
0G
1I
0*
1-
0C
1A
1H
0-
1+
1B
1,
#450000
1)
1@
1M
1N
1F
1D
1.
#470000
0'
0(
1!
0?
0>
18
1W
0O
0K
0N
1R
0T
0Z
1[
0V
1J
0I
1G
0F
1E
0A
1C
0D
0H
1*
0.
1-
0+
0B
0,
#500000
0&
0"
0$
1#
0=
0;
1:
09
0U
1P
0L
0S
1N
0Q
0R
1T
0Y
1Z
0[
1V
1R
0T
0V
0G
1F
0C
1D
1G
1H
0J
1I
1.
0-
1C
1B
0E
1A
0H
1-
1,
1+
0*
0B
0,
#510000
0)
0@
0M
0N
0F
0D
0.
#530000
1"
1$
0#
1'
1;
0:
19
1>
1O
1U
0P
1L
1N
1V
1H
1F
1B
1D
1.
1,
#560000
0$
1#
0'
1&
1(
0!
1%
0;
1:
08
1?
0>
1=
1<
1X
1S
0O
1K
0W
1P
0L
0V
1Y
0Z
1[
0H
0B
1J
0I
0,
1E
0A
1*
0+
#590000
1$
0#
0&
0(
1!
0%
1;
0:
18
0?
0=
0<
0X
0S
0K
1W
0P
1L
0R
1V
0Y
1Z
0[
1H
0G
1B
0C
0J
1I
0-
1,
0E
1A
0*
1+
#620000
0$
1&
1(
0!
1%
0"
0;
09
08
1?
1=
1<
1X
1S
1K
0W
0U
0L
#650000
1$
0(
1!
0%
1"
1;
19
18
0?
0<
0X
0K
1W
1U
1L
0V
1Y
0Z
1[
0H
0B
1J
0I
0,
1E
0A
1*
0+
#660000
1)
1@
1M
0N
1Q
1R
0F
0D
1G
0.
1C
1-
#710000
0$
1(
0!
1%
0"
0&
1#
1'
0;
1:
09
08
1?
1>
0=
1<
1X
0S
1O
1K
0W
0U
1P
0L
1T
0Y
1Z
0[
1V
1H
0J
1I
1B
0E
1A
1,
1+
0*
#730000
0#
0:
0P
0R
0G
0C
0-
#740000
0(
1&
0'
0?
0>
1=
1S
0O
0K
1N
0Q
1R
0T
0V
1Y
0Z
1[
1V
0Y
0R
1Z
0[
0H
1G
1F
0B
1C
1D
0G
1H
1J
0I
1.
1-
0,
0C
1B
1E
0A
0J
1I
0-
1,
0+
1*
0E
1A
0*
1+
#750000
0)
0@
0M
0N
0F
0D
0.
#770000
0&
1'
1>
0=
0S
1O
1R
0V
0H
1G
0B
1C
1-
0,
#800000
1&
0%
1=
0<
0X
1S
1V
0Z
0I
1H
0A
1B
1,
0+
#830000
1%
1(
1?
1<
1X
1K
1N
1Z
1I
1F
1A
1D
1.
1+
#860000
0%
0'
0>
0<
0X
0O
0R
0Z
0I
0G
0A
0C
0-
0+
#870000
1)
1@
1M
0N
1Q
1R
0F
0D
1G
0.
1C
1-
#890000
1%
0(
0?
1<
1X
0K
1N
0Q
1Z
0R
1I
1F
1A
1D
0G
1.
1+
0C
0-
#900000
0)
0@
0M
0N
0F
0D
0.
#920000
0%
0&
0=
0<
0X
0S
0V
0Z
0I
0H
0A
0B
0,
0+
