1.2/LSD/trabPrat02/part4/simulation/qsim/PEnc4_2Demo.msim.vcd
$comment
	File created using the following command:
		vcd file PEnc4_2Demo.msim.vcd -direction
$end
$date
	Mon Mar  4 16:52:43 2024
$end
$version
	Questa Intel Starter FPGA Edition Version 2021.2
$end
$timescale
	1ps
$end

$scope module penc4_2_vhd_vec_tst $end
$var wire 1 ! decodedIn [3] $end
$var wire 1 " decodedIn [2] $end
$var wire 1 # decodedIn [1] $end
$var wire 1 $ decodedIn [0] $end
$var wire 1 % encodedOut [1] $end
$var wire 1 & encodedOut [0] $end
$var wire 1 ' validOut $end

$scope module i1 $end
$var wire 1 ( gnd $end
$var wire 1 ) vcc $end
$var wire 1 * unknown $end
$var wire 1 + devoe $end
$var wire 1 , devclrn $end
$var wire 1 - devpor $end
$var wire 1 . ww_devoe $end
$var wire 1 / ww_devclrn $end
$var wire 1 0 ww_devpor $end
$var wire 1 1 ww_decodedIn [3] $end
$var wire 1 2 ww_decodedIn [2] $end
$var wire 1 3 ww_decodedIn [1] $end
$var wire 1 4 ww_decodedIn [0] $end
$var wire 1 5 ww_encodedOut [1] $end
$var wire 1 6 ww_encodedOut [0] $end
$var wire 1 7 ww_validOut $end
$var wire 1 8 \encodedOut[0]~output_o\ $end
$var wire 1 9 \encodedOut[1]~output_o\ $end
$var wire 1 : \validOut~output_o\ $end
$var wire 1 ; \decodedIn[1]~input_o\ $end
$var wire 1 < \decodedIn[3]~input_o\ $end
$var wire 1 = \decodedIn[2]~input_o\ $end
$var wire 1 > \comb~1_combout\ $end
$var wire 1 ? \decodedIn[0]~input_o\ $end
$var wire 1 @ \comb~0_combout\ $end
$var wire 1 A \encodedOut[0]$latch~combout\ $end
$var wire 1 B \comb~2_combout\ $end
$var wire 1 C \encodedOut[1]~0_combout\ $end
$var wire 1 D \encodedOut[1]$latch~combout\ $end
$var wire 1 E \validOut~0_combout\ $end
$upscope $end
$upscope $end
$enddefinitions $end
#0
$dumpvars
0'
0(
1)
x*
1+
1,
1-
1.
1/
10
07
x8
x9
0:
0;
0<
0=
1>
0?
0@
xA
0B
1C
xD
0E
0!
0"
0#
0$
x%
x&
01
02
03
04
x5
x6
$end
#30000
1$
14
1?
1@
1B
1E
0D
0A
1:
17
08
09
1'
06
05
0&
0%
#60000
0$
1#
04
13
1;
0?
0>
0@
1A
18
16
1&
#90000
1$
14
1?
#120000
0$
0#
1"
04
03
12
1=
0;
0?
1>
1@
0B
0C
1D
0A
08
19
06
15
0&
1%
#150000
1$
14
1?
#180000
0$
1#
04
13
1;
0?
#210000
1$
14
1?
#240000
0$
0#
0"
1!
04
03
02
11
1<
0=
0;
0?
0>
0@
1A
18
16
1&
#270000
1$
14
1?
#300000
0$
1#
04
13
1;
0?
#330000
1$
14
1?
#360000
0$
0#
1"
04
03
12
1=
0;
0?
#390000
1$
14
1?
#420000
0$
1#
04
13
1;
0?
#450000
1$
14
1?
#480000
0$
0#
0"
0!
04
03
02
01
0<
0=
0;
0?
1>
1C
0E
0:
07
0'
#510000
1$
14
1?
1@
1B
1E
0D
0A
1:
17
08
09
1'
06
05
0&
0%
#540000
0$
1#
04
13
1;
0?
0>
0@
1A
18
16
1&
#570000
1$
14
1?
#600000
0$
0#
1"
04
03
12
1=
0;
0?
1>
1@
0B
0C
1D
0A
08
19
06
15
0&
1%
#630000
1$
14
1?
#660000
0$
1#
04
13
1;
0?
#690000
1$
14
1?
#720000
0$
0#
0"
1!
04
03
02
11
1<
0=
0;
0?
0>
0@
1A
18
16
1&
#750000
1$
14
1?
#780000
0$
1#
04
13
1;
0?
#810000
1$
14
1?
#840000
0$
0#
1"
04
03
12
1=
0;
0?
#870000
1$
14
1?
#900000
0$
1#
04
13
1;
0?
#930000
1$
14
1?
#960000
0$
0#
0"
0!
04
03
02
01
0<
0=
0;
0?
1>
1C
0E
0:
07
0'
#990000
1$
14
1?
1@
1B
1E
0D
0A
1:
17
08
09
1'
06
05
0&
0%
