1.1/ISD/teste_passado/enunciado2/simulation/qsim/enunciado2.msim.vcd
$comment
	File created using the following command:
		vcd file enunciado2.msim.vcd -direction
$end
$date
	Wed Dec 20 00:47:17 2023
$end
$version
	Questa Intel Starter FPGA Edition Version 2021.2
$end
$timescale
	1ps
$end

$scope module enunciado2_vlg_vec_tst $end
$var reg 1 ! CLK $end
$var reg 1 " RESET_L $end
$var reg 1 # X $end
$var wire 1 $ Q [1] $end
$var wire 1 % Q [0] $end

$scope module i1 $end
$var wire 1 & gnd $end
$var wire 1 ' vcc $end
$var wire 1 ( unknown $end
$var tri1 1 ) devclrn $end
$var tri1 1 * devpor $end
$var tri1 1 + devoe $end
$var wire 1 , Q[1]~output_o $end
$var wire 1 - Q[0]~output_o $end
$var wire 1 . CLK~input_o $end
$var wire 1 / RESET_L~input_o $end
$var wire 1 0 inst13~0_combout $end
$var wire 1 1 X~input_o $end
$var wire 1 2 inst12~1_combout $end
$var wire 1 3 ff0~q $end
$var wire 1 4 inst12~0_combout $end
$var wire 1 5 ff1~q $end
$upscope $end
$upscope $end
$enddefinitions $end
#0
$dumpvars
0!
1"
0#
0%
0$
0&
1'
x(
1)
1*
1+
0,
0-
0.
1/
10
01
02
03
04
05
$end
#20000
1!
1.
#40000
1#
0!
11
0.
12
#60000
1!
1.
13
1-
14
1%
#80000
0#
0!
01
0.
02
#100000
1!
1.
#120000
0"
1#
0!
0/
11
0.
04
12
00
#140000
1!
1.
03
0-
0%
#160000
0#
0!
01
0.
#180000
1!
1.
#200000
1#
0!
11
0.
#220000
1!
1.
#240000
1"
0#
0!
1/
01
0.
02
10
#260000
1!
1.
#280000
1#
0!
11
0.
12
#300000
1!
1.
13
1-
14
1%
#320000
0#
0!
01
0.
02
#340000
1!
1.
#360000
1#
0!
11
0.
12
#380000
1!
1.
15
1,
00
1$
#400000
0#
0!
01
0.
02
#420000
1!
1.
#440000
1#
0!
11
0.
12
#460000
1!
1.
03
0-
04
0%
#480000
0#
0!
01
0.
02
#500000
1!
1.
#520000
1#
0!
11
0.
12
#540000
1!
1.
05
0,
10
0$
#560000
0#
0!
01
0.
02
#580000
1!
1.
#600000
1#
0!
11
0.
12
#620000
1!
1.
13
1-
14
1%
#640000
0#
0!
01
0.
02
#660000
1!
1.
#680000
1#
0!
11
0.
12
#700000
1!
1.
15
1,
00
1$
#720000
0#
0!
01
0.
02
#740000
1!
1.
#760000
1#
0!
11
0.
12
#780000
1!
1.
03
0-
04
0%
#800000
0#
0!
01
0.
02
#820000
1!
1.
#840000
1#
0!
11
0.
12
#860000
1!
1.
05
0,
10
0$
#880000
0#
0!
01
0.
02
#900000
1!
1.
#920000
1#
0!
11
0.
12
#940000
1!
1.
13
1-
14
1%
#960000
0#
0!
01
0.
02
#980000
1!
1.
