1.2/LSD/projetoTreino/simulation/qsim/projetoTreino.msim.vcd
$comment
	File created using the following command:
		vcd file projetoTreino.msim.vcd -direction
$end
$date
	Sun Apr  7 19:34:14 2024
$end
$version
	Questa Intel Starter FPGA Edition Version 2021.2
$end
$timescale
	1ps
$end

$scope module counterup12_vhd_vec_tst $end
$var wire 1 ! clk $end
$var wire 1 " count [3] $end
$var wire 1 # count [2] $end
$var wire 1 $ count [1] $end
$var wire 1 % count [0] $end
$var wire 1 & reset $end

$scope module i1 $end
$var wire 1 ' gnd $end
$var wire 1 ( vcc $end
$var wire 1 ) unknown $end
$var wire 1 * devoe $end
$var wire 1 + devclrn $end
$var wire 1 , devpor $end
$var wire 1 - ww_devoe $end
$var wire 1 . ww_devclrn $end
$var wire 1 / ww_devpor $end
$var wire 1 0 ww_clk $end
$var wire 1 1 ww_reset $end
$var wire 1 2 ww_count [3] $end
$var wire 1 3 ww_count [2] $end
$var wire 1 4 ww_count [1] $end
$var wire 1 5 ww_count [0] $end
$var wire 1 6 \count[0]~output_o\ $end
$var wire 1 7 \count[1]~output_o\ $end
$var wire 1 8 \count[2]~output_o\ $end
$var wire 1 9 \count[3]~output_o\ $end
$var wire 1 : \clk~input_o\ $end
$var wire 1 ; \s_count[0]~32_combout\ $end
$var wire 1 < \s_count[0]~33\ $end
$var wire 1 = \s_count[1]~35_combout\ $end
$var wire 1 > \s_count[1]~36\ $end
$var wire 1 ? \s_count[2]~37_combout\ $end
$var wire 1 @ \s_count[2]~38\ $end
$var wire 1 A \s_count[3]~39_combout\ $end
$var wire 1 B \Equal0~0_combout\ $end
$var wire 1 C \s_count[3]~40\ $end
$var wire 1 D \s_count[4]~41_combout\ $end
$var wire 1 E \s_count[4]~42\ $end
$var wire 1 F \s_count[5]~43_combout\ $end
$var wire 1 G \s_count[5]~44\ $end
$var wire 1 H \s_count[6]~45_combout\ $end
$var wire 1 I \s_count[6]~46\ $end
$var wire 1 J \s_count[7]~47_combout\ $end
$var wire 1 K \Equal0~1_combout\ $end
$var wire 1 L \s_count[7]~48\ $end
$var wire 1 M \s_count[8]~49_combout\ $end
$var wire 1 N \s_count[8]~50\ $end
$var wire 1 O \s_count[9]~51_combout\ $end
$var wire 1 P \s_count[9]~52\ $end
$var wire 1 Q \s_count[10]~53_combout\ $end
$var wire 1 R \s_count[10]~54\ $end
$var wire 1 S \s_count[11]~55_combout\ $end
$var wire 1 T \Equal0~2_combout\ $end
$var wire 1 U \s_count[11]~56\ $end
$var wire 1 V \s_count[12]~57_combout\ $end
$var wire 1 W \s_count[12]~58\ $end
$var wire 1 X \s_count[13]~59_combout\ $end
$var wire 1 Y \s_count[13]~60\ $end
$var wire 1 Z \s_count[14]~61_combout\ $end
$var wire 1 [ \s_count[14]~62\ $end
$var wire 1 \ \s_count[15]~63_combout\ $end
$var wire 1 ] \Equal0~3_combout\ $end
$var wire 1 ^ \Equal0~4_combout\ $end
$var wire 1 _ \s_count[15]~64\ $end
$var wire 1 ` \s_count[16]~65_combout\ $end
$var wire 1 a \s_count[16]~66\ $end
$var wire 1 b \s_count[17]~67_combout\ $end
$var wire 1 c \s_count[17]~68\ $end
$var wire 1 d \s_count[18]~69_combout\ $end
$var wire 1 e \s_count[18]~70\ $end
$var wire 1 f \s_count[19]~71_combout\ $end
$var wire 1 g \Equal0~5_combout\ $end
$var wire 1 h \s_count[19]~72\ $end
$var wire 1 i \s_count[20]~73_combout\ $end
$var wire 1 j \s_count[20]~74\ $end
$var wire 1 k \s_count[21]~75_combout\ $end
$var wire 1 l \s_count[21]~76\ $end
$var wire 1 m \s_count[22]~77_combout\ $end
$var wire 1 n \s_count[22]~78\ $end
$var wire 1 o \s_count[23]~79_combout\ $end
$var wire 1 p \Equal0~6_combout\ $end
$var wire 1 q \s_count[23]~80\ $end
$var wire 1 r \s_count[24]~81_combout\ $end
$var wire 1 s \s_count[24]~82\ $end
$var wire 1 t \s_count[25]~83_combout\ $end
$var wire 1 u \s_count[25]~84\ $end
$var wire 1 v \s_count[26]~85_combout\ $end
$var wire 1 w \s_count[26]~86\ $end
$var wire 1 x \s_count[27]~87_combout\ $end
$var wire 1 y \Equal0~7_combout\ $end
$var wire 1 z \s_count[27]~88\ $end
$var wire 1 { \s_count[28]~89_combout\ $end
$var wire 1 | \s_count[28]~90\ $end
$var wire 1 } \s_count[29]~91_combout\ $end
$var wire 1 ~ \s_count[29]~92\ $end
$var wire 1 !! \s_count[30]~93_combout\ $end
$var wire 1 "! \s_count[30]~94\ $end
$var wire 1 #! \s_count[31]~95_combout\ $end
$var wire 1 $! \Equal0~8_combout\ $end
$var wire 1 %! \Equal0~9_combout\ $end
$var wire 1 &! \reset~input_o\ $end
$var wire 1 '! \s_count[19]~34_combout\ $end
$var wire 1 (! s_count [31] $end
$var wire 1 )! s_count [30] $end
$var wire 1 *! s_count [29] $end
$var wire 1 +! s_count [28] $end
$var wire 1 ,! s_count [27] $end
$var wire 1 -! s_count [26] $end
$var wire 1 .! s_count [25] $end
$var wire 1 /! s_count [24] $end
$var wire 1 0! s_count [23] $end
$var wire 1 1! s_count [22] $end
$var wire 1 2! s_count [21] $end
$var wire 1 3! s_count [20] $end
$var wire 1 4! s_count [19] $end
$var wire 1 5! s_count [18] $end
$var wire 1 6! s_count [17] $end
$var wire 1 7! s_count [16] $end
$var wire 1 8! s_count [15] $end
$var wire 1 9! s_count [14] $end
$var wire 1 :! s_count [13] $end
$var wire 1 ;! s_count [12] $end
$var wire 1 <! s_count [11] $end
$var wire 1 =! s_count [10] $end
$var wire 1 >! s_count [9] $end
$var wire 1 ?! s_count [8] $end
$var wire 1 @! s_count [7] $end
$var wire 1 A! s_count [6] $end
$var wire 1 B! s_count [5] $end
$var wire 1 C! s_count [4] $end
$var wire 1 D! s_count [3] $end
$var wire 1 E! s_count [2] $end
$var wire 1 F! s_count [1] $end
$var wire 1 G! s_count [0] $end
$upscope $end
$upscope $end
$enddefinitions $end
#0
$dumpvars
0!
0&
0'
1(
x)
1*
1+
1,
1-
1.
1/
00
01
06
07
08
09
0:
1;
0<
0=
1>
0?
0@
0A
1B
1C
0D
0E
0F
1G
0H
0I
0J
0K
1L
0M
0N
0O
1P
0Q
0R
0S
0T
1U
0V
0W
0X
1Y
0Z
0[
0\
0]
1^
1_
0`
0a
0b
1c
0d
0e
0f
0g
1h
0i
0j
0k
1l
0m
0n
0o
0p
1q
0r
0s
0t
1u
0v
0w
0x
0y
1z
0{
0|
0}
1~
0!!
0"!
0#!
0$!
0%!
0&!
0'!
0(!
0)!
0*!
0+!
0,!
0-!
0.!
0/!
00!
01!
02!
03!
04!
05!
06!
07!
08!
09!
0:!
0;!
0<!
0=!
0>!
0?!
0@!
0A!
0B!
0C!
0D!
0E!
0F!
0G!
0"
0#
0$
0%
02
03
04
05
$end
#15000
1!
10
1:
1G!
0;
1<
1=
16
15
1%
#30000
0!
00
0:
#45000
1!
10
1:
1F!
0G!
1;
0<
0=
0>
1?
1=
1>
06
17
0?
05
14
0%
1$
#60000
0!
00
0:
#75000
1!
10
1:
1G!
0;
1<
0=
0>
16
1?
15
1%
#90000
0!
00
0:
#105000
1!
10
1:
0F!
1E!
0G!
1;
0<
0?
1@
1=
1>
1?
0@
1A
0=
06
18
07
0A
05
13
04
0%
0$
1#
#120000
0!
00
0:
#135000
1!
10
1:
1G!
0;
1<
1=
16
15
1%
#150000
0!
00
0:
#165000
1!
10
1:
1F!
0G!
1;
0<
0=
0>
0?
1@
1=
1>
06
17
1?
0@
1A
05
14
0%
1$
0A
#180000
0!
00
0:
#195000
1!
10
1:
1G!
0;
1<
0=
0>
16
0?
1@
15
1%
1A
#210000
0!
00
0:
#225000
1!
10
1:
0F!
0E!
1D!
0G!
1;
0<
0A
0C
1?
0@
1=
1>
0?
1A
1C
1D
0=
06
19
08
07
0D
05
12
03
04
0%
0$
0#
1"
#240000
0!
00
0:
#255000
1!
10
1:
1G!
0;
1<
1=
16
15
1%
#270000
0!
00
0:
#285000
1!
10
1:
1F!
0G!
1;
0<
0=
0>
1?
1=
1>
06
17
0?
05
14
0%
1$
#300000
0!
00
0:
#315000
1!
10
1:
1G!
0;
1<
0=
0>
16
1?
15
1%
#330000
0!
00
0:
#345000
1!
10
1:
0F!
1E!
0G!
1;
0<
0?
1@
1=
1>
0B
0^
1?
0@
0A
0C
0=
06
18
07
1D
1A
1C
1'!
05
13
04
0%
0$
1#
0D
#350000
1&
11
1&!
#360000
0!
00
0:
#375000
1!
10
1:
0E!
0D!
0A
0?
1B
1^
09
08
02
03
0#
0"
#390000
0!
00
0:
#400000
0&
01
0&!
0'!
#405000
1!
10
1:
1G!
0;
1<
1=
16
15
1%
#420000
0!
00
0:
#435000
1!
10
1:
1F!
0G!
1;
0<
0=
0>
1?
1=
1>
06
17
0?
05
14
0%
1$
#450000
0!
00
0:
#465000
1!
10
1:
1G!
0;
1<
0=
0>
16
1?
15
1%
#480000
0!
00
0:
#495000
1!
10
1:
0F!
1E!
0G!
1;
0<
0?
1@
1=
1>
1?
0@
1A
0=
06
18
07
0A
05
13
04
0%
0$
1#
#510000
0!
00
0:
#525000
1!
10
1:
1G!
0;
1<
1=
16
15
1%
#540000
0!
00
0:
#555000
1!
10
1:
1F!
0G!
1;
0<
0=
0>
0?
1@
1=
1>
06
17
1?
0@
1A
05
14
0%
1$
0A
#570000
0!
00
0:
#585000
1!
10
1:
1G!
0;
1<
0=
0>
16
0?
1@
15
1%
1A
#600000
0!
00
0:
#615000
1!
10
1:
0F!
0E!
1D!
0G!
1;
0<
0A
0C
1?
0@
1=
1>
0?
1A
1C
1D
0=
06
19
08
07
0D
05
12
03
04
0%
0$
0#
1"
#630000
0!
00
0:
#645000
1!
10
1:
1G!
0;
1<
1=
16
15
1%
#660000
0!
00
0:
#675000
1!
10
1:
1F!
0G!
1;
0<
0=
0>
1?
1=
1>
06
17
0?
05
14
0%
1$
#690000
0!
00
0:
#705000
1!
10
1:
1G!
0;
1<
0=
0>
16
1?
15
1%
#720000
0!
00
0:
#735000
1!
10
1:
0F!
1E!
0G!
1;
0<
0?
1@
1=
1>
0B
0^
1?
0@
0A
0C
0=
06
18
07
1D
1A
1C
1'!
05
13
04
0%
0$
1#
0D
#750000
0!
00
0:
#765000
1!
10
1:
0E!
0D!
0A
0?
1B
1^
09
08
0'!
02
03
0#
0"
#780000
0!
00
0:
#795000
1!
10
1:
1G!
0;
1<
1=
16
15
1%
#810000
0!
00
0:
#825000
1!
10
1:
1F!
0G!
1;
0<
0=
0>
1?
1=
1>
06
17
0?
05
14
0%
1$
#840000
0!
00
0:
#855000
1!
10
1:
1G!
0;
1<
0=
0>
16
1?
15
1%
#870000
0!
00
0:
#885000
1!
10
1:
0F!
1E!
0G!
1;
0<
0?
1@
1=
1>
1?
0@
1A
0=
06
18
07
0A
05
13
04
0%
0$
1#
#900000
0!
00
0:
#915000
1!
10
1:
1G!
0;
1<
1=
16
15
1%
#930000
0!
00
0:
#945000
1!
10
1:
1F!
0G!
1;
0<
0=
0>
0?
1@
1=
1>
06
17
1?
0@
1A
05
14
0%
1$
0A
#960000
0!
00
0:
#975000
1!
10
1:
1G!
0;
1<
0=
0>
16
0?
1@
15
1%
1A
#990000
0!
00
0:
