1.2/LSD/trabPrat04/part1/simulation/qsim/FlipFlopD_Demo.msim.vcd
$comment
	File created using the following command:
		vcd file FlipFlopD_Demo.msim.vcd -direction
$end
$date
	Mon Mar 18 13:14:59 2024
$end
$version
	Questa Intel Starter FPGA Edition Version 2021.2
$end
$timescale
	1ps
$end

$scope module flipflopd_vhd_vec_tst $end
$var wire 1 ! clk $end
$var wire 1 " d $end
$var wire 1 # q $end
$var wire 1 $ reset $end
$var wire 1 % set $end

$scope module i1 $end
$var wire 1 & gnd $end
$var wire 1 ' vcc $end
$var wire 1 ( unknown $end
$var wire 1 ) devoe $end
$var wire 1 * devclrn $end
$var wire 1 + devpor $end
$var wire 1 , ww_devoe $end
$var wire 1 - ww_devclrn $end
$var wire 1 . ww_devpor $end
$var wire 1 / ww_clk $end
$var wire 1 0 ww_set $end
$var wire 1 1 ww_reset $end
$var wire 1 2 ww_d $end
$var wire 1 3 ww_q $end
$var wire 1 4 \q~output_o\ $end
$var wire 1 5 \clk~input_o\ $end
$var wire 1 6 \set~input_o\ $end
$var wire 1 7 \d~input_o\ $end
$var wire 1 8 \reset~input_o\ $end
$var wire 1 9 \q~0_combout\ $end
$var wire 1 : \q~reg0_q\ $end
$upscope $end
$upscope $end
$enddefinitions $end
#0
$dumpvars
0!
0"
0#
0$
0%
0&
1'
x(
1)
1*
1+
1,
1-
1.
0/
00
01
02
03
04
05
06
07
08
09
0:
$end
#15000
1!
1/
15
#30000
0!
0/
05
#45000
1!
1/
15
#50000
1"
12
17
19
#60000
0!
0/
05
#75000
1!
1/
15
1:
14
13
1#
#90000
0!
0/
05
#105000
1!
1/
15
#120000
0!
0/
05
#135000
1!
1/
15
#150000
0!
1$
0/
11
18
05
09
#165000
1!
1/
15
0:
04
03
0#
#180000
0!
0/
05
#195000
1!
1/
15
#210000
0!
0$
0/
01
08
05
19
#225000
1!
1/
15
1:
14
13
1#
#240000
0!
0/
05
#255000
1!
1/
15
#270000
0!
0/
05
#285000
1!
1/
15
#300000
0!
0/
05
#315000
1!
1/
15
#330000
0!
0"
0/
02
07
05
09
#345000
1!
1/
15
0:
04
03
0#
#360000
0!
1%
0/
10
16
05
19
#375000
1!
1/
15
1:
14
13
1#
#390000
0!
0/
05
#400000
0%
00
06
09
#405000
1!
1/
15
0:
04
03
0#
#420000
0!
0/
05
#430000
1"
12
17
19
#435000
1!
1/
15
1:
14
13
1#
#450000
0!
0/
05
#465000
1!
1/
15
#480000
0!
0/
05
#495000
1!
1/
15
#510000
0!
0/
05
#525000
1!
1/
15
#540000
0!
0/
05
#555000
1!
1/
15
#570000
0!
0/
05
#580000
0"
02
07
09
#585000
1!
1/
15
0:
04
03
0#
#600000
0!
0/
05
#615000
1!
1/
15
#630000
0!
0/
05
#640000
1"
12
17
19
#645000
1!
1/
15
1:
14
13
1#
#660000
0!
0/
05
#675000
1!
1/
15
#690000
0!
0/
05
#705000
1!
1/
15
#710000
0"
02
07
09
#720000
0!
0/
05
#735000
1!
1/
15
0:
04
03
0#
#750000
0!
0/
05
#765000
1!
1/
15
#780000
0!
0/
05
#795000
1!
1/
15
#810000
0!
0/
05
#825000
1!
1/
15
#840000
0!
0/
05
#855000
1!
1/
15
#870000
0!
0/
05
#885000
1!
1/
15
#900000
0!
0/
05
#915000
1!
1/
15
#930000
0!
0/
05
#945000
1!
1/
15
#960000
0!
0/
05
#975000
1!
1/
15
#990000
0!
0/
05
