1.2/LSD/toolsProject/simulation/qsim/tools.msim.vcd
$comment
	File created using the following command:
		vcd file tools.msim.vcd -direction
$end
$date
	Mon Apr  8 13:45:31 2024
$end
$version
	Questa Intel Starter FPGA Edition Version 2021.2
$end
$timescale
	1ps
$end

$scope module blinkgenerator_vhd_vec_tst $end
$var wire 1 ! blink $end
$var wire 1 " clk $end
$var wire 1 # reset $end

$scope module i1 $end
$var wire 1 $ gnd $end
$var wire 1 % vcc $end
$var wire 1 & unknown $end
$var wire 1 ' devoe $end
$var wire 1 ( devclrn $end
$var wire 1 ) devpor $end
$var wire 1 * ww_devoe $end
$var wire 1 + ww_devclrn $end
$var wire 1 , ww_devpor $end
$var wire 1 - ww_clk $end
$var wire 1 . ww_reset $end
$var wire 1 / ww_blink $end
$var wire 1 0 \blink~output_o\ $end
$var wire 1 1 \clk~input_o\ $end
$var wire 1 2 \reset~input_o\ $end
$var wire 1 3 \s_counter~1_combout\ $end
$var wire 1 4 \s_counter~2_combout\ $end
$var wire 1 5 \s_counter~0_combout\ $end
$var wire 1 6 s_counter [2] $end
$var wire 1 7 s_counter [1] $end
$var wire 1 8 s_counter [0] $end
$upscope $end
$upscope $end
$enddefinitions $end
#0
$dumpvars
0!
0"
0#
0$
1%
x&
1'
1(
1)
1*
1+
1,
0-
0.
0/
00
01
02
13
04
05
06
07
08
$end
#15000
1"
1-
11
18
03
14
#30000
0"
0-
01
#45000
1"
1-
11
08
17
13
#60000
0"
0-
01
#75000
1"
1-
11
18
03
04
15
#90000
0"
0-
01
#105000
1"
1-
11
08
07
16
13
10
1/
1!
#120000
0"
0-
01
#135000
1"
1-
11
18
03
14
#150000
0"
0-
01
#165000
1"
1-
11
08
17
13
#180000
0"
0-
01
#195000
1"
1-
11
18
03
04
05
#210000
0"
0-
01
#225000
1"
1-
11
08
07
06
13
00
0/
0!
#240000
0"
0-
01
#255000
1"
1-
11
18
03
14
#270000
0"
0-
01
#285000
1"
1-
11
08
17
13
#300000
0"
0-
01
#315000
1"
1-
11
18
03
04
15
#330000
0"
0-
01
#345000
1"
1-
11
08
07
16
13
10
1/
1!
#360000
0"
0-
01
#375000
1"
1-
11
18
03
14
#390000
0"
0-
01
#405000
1"
1-
11
08
17
13
#420000
0"
0-
01
#435000
1"
1-
11
18
03
04
05
#450000
0"
0-
01
#465000
1"
1-
11
08
07
06
13
00
0/
0!
#480000
0"
0-
01
#495000
1"
1-
11
18
03
14
#510000
0"
0-
01
#525000
1"
1-
11
08
17
13
#540000
0"
0-
01
#555000
1"
1-
11
18
03
04
15
#570000
0"
0-
01
#585000
1"
1-
11
08
07
16
13
10
1/
1!
#600000
0"
0-
01
#615000
1"
1-
11
18
03
14
#630000
0"
0-
01
#645000
1"
1-
11
08
17
13
#660000
0"
0-
01
#675000
1"
1-
11
18
03
04
05
#690000
0"
0-
01
#705000
1"
1-
11
08
07
06
13
00
0/
0!
#720000
0"
0-
01
#735000
1"
1-
11
18
03
14
#750000
0"
0-
01
#765000
1"
1-
11
08
17
13
#780000
0"
0-
01
#795000
1"
1-
11
18
03
04
15
#810000
0"
0-
01
#825000
1"
1-
11
08
07
16
13
10
1/
1!
#840000
0"
0-
01
#855000
1"
1-
11
18
03
14
#870000
0"
0-
01
#885000
1"
1-
11
08
17
13
#900000
0"
0-
01
#915000
1"
1-
11
18
03
04
05
#930000
0"
0-
01
#945000
1"
1-
11
08
07
06
13
00
0/
0!
#960000
0"
0-
01
#975000
1"
1-
11
18
03
14
#990000
0"
0-
01
